<?xml version="1.0" encoding="UTF-8"?>
<svg width="41px" height="48px" viewBox="0 0 41 48" version="1.1" xmlns="http://www.w3.org/2000/svg" xmlns:xlink="http://www.w3.org/1999/xlink">
    <!-- Generator: Sketch 49 (51002) - http://www.bohemiancoding.com/sketch -->
    <title>user-placeholder</title>
    <desc>Created with Sketch.</desc>
    <defs>
        <style type="text/css"><![CDATA[
       #Avatar {
         stroke: red;
         fill: red;
       }
       #Avatar:hover{
            stroke: #cccccc;
            fill: #cccccc;
       }
    ]]></style>
    </defs>
    <g id="Empty-cases" stroke="none" stroke-width="1" fill="none" fill-rule="evenodd">
        <g id="02.empty-settings-avatar" transform="translate(-295.000000, -60.000000)" fill="#cccccc" fill-rule="nonzero">
            <g id="Avatar" transform="translate(271.000000, 40.000000)">
                <path d="M44.2816901,20 C49.8929577,20 54.4225352,24.5295775 54.4225352,30.1408451 C54.4225352,35.7521127 49.8929577,40.2816901 44.2816901,40.2816901 C38.6704225,40.2816901 34.1408451,35.7521127 34.1408451,30.1408451 C34.1408451,24.5295775 38.6704225,20 44.2816901,20 Z M44.2816901,68 C35.8309859,68 28.3605634,63.6732394 24,57.115493 C24.1014085,50.3887324 37.5211268,46.7042254 44.2816901,46.7042254 C51.0084507,46.7042254 64.4619718,50.3887324 64.5633803,57.115493 C60.2028169,63.6732394 52.7323944,68 44.2816901,68 Z" id="user-placeholder"></path>
            </g>
        </g>
    </g>
</svg>